…
```r
deserts %>%
  count(genus, species) %>%
  arrange(desc(n))
```

```
## # A tibble: 48 x 3
##    genus           species          n
##    <chr>           <chr>        <int>
##  1 Dipodomys       merriami     10596
##  2 Chaetodipus     penicillatus  3123
##  3 Dipodomys       ordii         3027
##  4 Chaetodipus     baileyi       2891
##  5 Reithrodontomys megalotis     2609
##  6 Dipodomys       spectabilis   2504
##  7 Onychomys       torridus      2249
##  8 Perognathus     flavus        1597
##  9 Peromyscus      eremicus      1299
## 10 Neotoma         albigula      1252
## # ... with 38 more rows
```
…
```r
deserts %>%
  filter(species == "merriami") %>%
  group_by(year) %>%
  summarise(species, year, n=n())
```

```
## `summarise()` has grouped output by 'year'. You can override using the `.groups`
## argument.
```

```
## # A tibble: 10,596 x 3
## # Groups:   year [26]
##     year species      n
##    <dbl> <chr>    <int>
##  1  1977 merriami   264
##  2  1977 merriami   264
##  3  1977 merriami   264
##  4  1977 merriami   264
##  5  1977 merriami   264
##  6  1977 merriami   264
##  7  1977 merriami   264
##  8  1977 merriami   264
##  9  1977 merriami   264
## 10  1977 merriami   264
## # ... with 10,586 more rows
```
…
9. Which two species have, on average, the highest weight? Once you have identified them, make a new column that is a ratio of `weight` to `hindfoot_length`. Make a plot that shows the range of this new ratio and fill by sex.

```r
deserts %>%
  filter(weight!="NA") %>% 
  group_by(species) %>%
  summarise(mean_weight=mean(weight)) %>%
  arrange(desc(mean_weight))
```

```
## # A tibble: 22 x 2
##    species      mean_weight
##    <chr>              <dbl>
##  1 albigula           159. 
##  2 spectabilis        120. 
##  3 spilosoma           93.5
##  4 hispidus            65.6
##  5 fulviventer         58.9
##  6 ochrognathus        55.4
##  7 ordii               48.9
##  8 merriami            43.2
##  9 baileyi             31.7
## 10 leucogaster         31.6
## # ... with 12 more rows
```

```r
heavy_spec_ratio<- deserts %>%
  filter(species == "albigula" | species == "spectabilis") %>% 
  filter(weight!="NA" & hindfoot_length!="NA") %>% 
  mutate(ratio=weight/hindfoot_length) 
heavy_spec_ratio
```

```
## # A tibble: 3,072 x 14
##    record_id month   day  year plot_id species_id sex   hindfoot_length weight
##        <dbl> <dbl> <dbl> <dbl>   <dbl> <chr>      <chr>           <dbl>  <dbl>
##  1       357    11    12  1977       9 DS         F                  50    117
##  2       362    11    12  1977       1 DS         F                  51    121
##  3       367    11    12  1977      20 DS         M                  51    115
##  4       377    11    12  1977       9 DS         F                  48    120
##  5       381    11    13  1977      17 DS         F                  48    118
##  6       383    11    13  1977      11 DS         F                  52    126
##  7       385    11    13  1977      17 DS         M                  50    132
##  8       392    11    13  1977      11 DS         F                  53    122
##  9       394    11    13  1977       4 DS         F                  48    107
## 10       398    11    13  1977       4 DS         F                  50    115
## # ... with 3,062 more rows, and 5 more variables: genus <chr>, species <chr>,
## #   taxa <chr>, plot_type <chr>, ratio <dbl>
```
…
