…
```r
overdoses
```

```
## # A tibble: 41,625 x 12
##    State  Year Month Period          Indicator     `Data Value` `Percent Compl~`
##    <chr> <dbl> <chr> <chr>           <chr>                <dbl> <chr>           
##  1 AK     2015 April 12 month-ending Natural, sem~         NA   100             
##  2 AK     2015 April 12 month-ending Natural & se~         NA   100             
##  3 AK     2015 April 12 month-ending Natural & se~         NA   100             
##  4 AK     2015 April 12 month-ending Number of De~       4133   100             
##  5 AK     2015 April 12 month-ending Opioids (T40~         NA   100             
##  6 AK     2015 April 12 month-ending Cocaine (T40~         NA   100             
##  7 AK     2015 April 12 month-ending Synthetic op~         NA   100             
##  8 AK     2015 April 12 month-ending Psychostimul~         NA   100             
##  9 AK     2015 April 12 month-ending Heroin (T40.~         NA   100             
## 10 AK     2015 April 12 month-ending Percent with~         88.1 100             
## # ... with 41,615 more rows, and 5 more variables:
## #   `Percent Pending Investigation` <dbl>, `State Name` <chr>, Footnote <chr>,
## #   `Footnote Symbol` <chr>, `Predicted Value` <dbl>
```
…
