…
```
## Warning: NAs introduced by coercion
```

3. How many countries are represented in the data? Provide a count and list their names.

```r
fisheries_tidy
```

```
## # A tibble: 394,463 x 10
##    country common_name     isscaap_group_nu~ isscaap_taxonomic~ asfis_species_n~
##    <fct>   <chr>           <fct>             <chr>              <chr>           
##  1 Albania Angelsharks, s~ 38                Sharks, rays, chi~ 10903XXXXX      
##  2 Albania Angelsharks, s~ 38                Sharks, rays, chi~ 10903XXXXX      
##  3 Albania Angelsharks, s~ 38                Sharks, rays, chi~ 10903XXXXX      
##  4 Albania Angelsharks, s~ 38                Sharks, rays, chi~ 10903XXXXX      
##  5 Albania Angelsharks, s~ 38                Sharks, rays, chi~ 10903XXXXX      
##  6 Albania Angelsharks, s~ 38                Sharks, rays, chi~ 10903XXXXX      
##  7 Albania Angelsharks, s~ 38                Sharks, rays, chi~ 10903XXXXX      
##  8 Albania Angelsharks, s~ 38                Sharks, rays, chi~ 10903XXXXX      
##  9 Albania Angelsharks, s~ 38                Sharks, rays, chi~ 10903XXXXX      
## 10 Albania Angelsharks, s~ 38                Sharks, rays, chi~ 10903XXXXX      
## # ... with 394,453 more rows, and 5 more variables: asfis_species_name <chr>,
## #   fao_major_fishing_area <fct>, measure <chr>, year <dbl>, catch <dbl>
```

4. Refocus the data only to include country, isscaap_taxonomic_group, asfis_species_name, asfis_species_number, year, catch.

```r
fisheries_focus<- select(fisheries_tidy, country, isscaap_taxonomic_group, asfis_species_name, asfis_species_number, year, catch)
fisheries_focus
```

```
## # A tibble: 394,463 x 6
##    country isscaap_taxonomic_group asfis_species_n~ asfis_species_n~  year catch
##    <fct>   <chr>                   <chr>            <chr>            <dbl> <dbl>
##  1 Albania Sharks, rays, chimaeras Squatinidae      10903XXXXX        1995    NA
##  2 Albania Sharks, rays, chimaeras Squatinidae      10903XXXXX        1996    53
##  3 Albania Sharks, rays, chimaeras Squatinidae      10903XXXXX        1997    20
##  4 Albania Sharks, rays, chimaeras Squatinidae      10903XXXXX        1998    31
##  5 Albania Sharks, rays, chimaeras Squatinidae      10903XXXXX        1999    30
##  6 Albania Sharks, rays, chimaeras Squatinidae      10903XXXXX        2000    30
##  7 Albania Sharks, rays, chimaeras Squatinidae      10903XXXXX        2001    16
##  8 Albania Sharks, rays, chimaeras Squatinidae      10903XXXXX        2002    79
##  9 Albania Sharks, rays, chimaeras Squatinidae      10903XXXXX        2003     1
## 10 Albania Sharks, rays, chimaeras Squatinidae      10903XXXXX        2004     4
## # ... with 394,453 more rows
```
…
```
## [1] 1553
```

6. Which country had the largest overall catch in the year 2000?


```r
fisheries_tidy %>%
  select(country, year, catch) %>% 
  filter(year == "2000") 
```

```
## # A tibble: 8,793 x 3
##    country  year catch
##    <fct>   <dbl> <dbl>
##  1 Albania  2000    30
##  2 Albania  2000    25
##  3 Albania  2000     2
##  4 Albania  2000    NA
##  5 Albania  2000    20
##  6 Albania  2000    50
##  7 Albania  2000    85
##  8 Albania  2000    41
##  9 Albania  2000    90
## 10 Albania  2000    45
## # ... with 8,783 more rows
```

```r
#which.max(catch)
```

7. Which country caught the most sardines (_Sardina pilchardus_) between the years 1990-2000?

```r
fisheries_tidy %>%
  select(country, asfis_species_name, catch, year) %>%
  filter(asfis_species_name == "Sardina pilchardus", between(year, 1990, 2000))
```

```
## # A tibble: 336 x 4
##    country asfis_species_name catch  year
##    <fct>   <chr>              <dbl> <dbl>
##  1 Albania Sardina pilchardus     8  1990
##  2 Albania Sardina pilchardus    NA  1991
##  3 Albania Sardina pilchardus    34  1992
##  4 Albania Sardina pilchardus    50  1993
##  5 Albania Sardina pilchardus    NA  1994
##  6 Albania Sardina pilchardus    NA  1995
##  7 Albania Sardina pilchardus    NA  1996
##  8 Albania Sardina pilchardus    28  1997
##  9 Albania Sardina pilchardus    28  1998
## 10 Albania Sardina pilchardus    40  1999
## # ... with 326 more rows
```
```r
  #arrange(desc(catch))
```

8. Which five countries caught the most cephalopods between 2008-2012?

```r
fisheries_tidy %>%
  select(country, isscaap_taxonomic_group, year, catch) %>%
  filter(isscaap_taxonomic_group == "Squids, cuttlefishes, octopuses", between(year, 2008, 2012)) %>%
  arrange(desc(catch))
```

```
## # A tibble: 1,801 x 4
##    country                  isscaap_taxonomic_group          year catch
##    <fct>                    <chr>                           <dbl> <dbl>
##  1 Indonesia                Squids, cuttlefishes, octopuses  2012   991
##  2 China                    Squids, cuttlefishes, octopuses  2008   981
##  3 Chile                    Squids, cuttlefishes, octopuses  2012   965
##  4 United States of America Squids, cuttlefishes, octopuses  2010   901
##  5 China                    Squids, cuttlefishes, octopuses  2012   845
##  6 Japan                    Squids, cuttlefishes, octopuses  2010   832
##  7 China                    Squids, cuttlefishes, octopuses  2010   826
##  8 Peru                     Squids, cuttlefishes, octopuses  2010   822
##  9 Korea, Republic of       Squids, cuttlefishes, octopuses  2008   816
## 10 Peru                     Squids, cuttlefishes, octopuses  2009   805
## # ... with 1,791 more rows
```

```r
#The top 5 are Indonesia, China, Chile, USA and Japan
```

9. Which species had the highest catch total between 2008-2012? (hint: Osteichthyes is not a species)

```r
fisheries_tidy %>%
  select(asfis_species_name, year, catch) %>%
  filter(between(year, 2008, 2012)) 
```

```
## # A tibble: 51,014 x 3
##    asfis_species_name  year catch
##    <chr>              <dbl> <dbl>
##  1 Squatinidae         2008    23
##  2 Squatinidae         2009    14
##  3 Squatinidae         2010    78
##  4 Squatinidae         2011    12
##  5 Squatinidae         2012     5
##  6 Sarda sarda         2008    27
##  7 Sarda sarda         2009    21
##  8 Sarda sarda         2010    23
##  9 Sarda sarda         2011    12
## 10 Sarda sarda         2012     5
## # ... with 51,004 more rows
```
…
