Lab 11 Homework
…
2. Among the interesting variables in gapminder is life expectancy. How has global life expectancy changed between 1952 and 2007?

gapminder %>%
  group_by(year) %>%
  summarise(year, mean(life_exp))

## `summarise()` has grouped output by 'year'. You can override using the
## `.groups` argument.

## # A tibble: 1,704 x 2
## # Groups:   year [12]
##     year `mean(life_exp)`
##    <int>            <dbl>
##  1  1952             49.1
##  2  1952             49.1
##  3  1952             49.1
##  4  1952             49.1
##  5  1952             49.1
##  6  1952             49.1
##  7  1952             49.1
##  8  1952             49.1
##  9  1952             49.1
## 10  1952             49.1
## # ... with 1,694 more rows
…
4. Your answer above doesnt tell the whole story since life expectancy varies by region. Make a summary that shows the min, mean, and max life expectancy by continent for all years represented in the data.

gapminder %>%
  group_by(continent, year) %>%
  summarise(continent, year, 
            min=min(life_exp),
            mean=mean(life_exp),
            max=max(life_exp))

## `summarise()` has grouped output by 'continent', 'year'. You can override using
## the `.groups` argument.

## # A tibble: 1,704 x 5
## # Groups:   continent, year [60]
##    continent year    min  mean   max
##    <fct>     <fct> <dbl> <dbl> <dbl>
##  1 Africa    1952     30  39.1  52.7
##  2 Africa    1952     30  39.1  52.7
##  3 Africa    1952     30  39.1  52.7
##  4 Africa    1952     30  39.1  52.7
##  5 Africa    1952     30  39.1  52.7
##  6 Africa    1952     30  39.1  52.7
##  7 Africa    1952     30  39.1  52.7
##  8 Africa    1952     30  39.1  52.7
##  9 Africa    1952     30  39.1  52.7
## 10 Africa    1952     30  39.1  52.7
## # ... with 1,694 more rows
…
7. Which countries have had the largest population growth since 1952?

pop_diff_per_country<- gapminder %>% 
  select(country, year, pop) %>% 
  filter(year==1952 | year==2007) %>%
  pivot_wider(names_from = year,
              names_prefix = "year_",
              values_from = pop) %>%
  mutate(difference=year_2007-year_1952) %>%
  arrange(desc(difference))
pop_diff_per_country

## # A tibble: 142 x 4
##    country       year_1952  year_2007 difference
##    <fct>             <int>      <int>      <int>
##  1 China         556263527 1318683096  762419569
##  2 India         372000000 1110396331  738396331
##  3 United States 157553000  301139947  143586947
##  4 Indonesia      82052000  223547000  141495000
##  5 Brazil         56602560  190010647  133408087
##  6 Pakistan       41346560  169270617  127924057
##  7 Bangladesh     46886859  150448339  103561480
##  8 Nigeria        33119096  135031164  101912068
##  9 Mexico         30144317  108700891   78556574
## 10 Philippines    22438691   91077287   68638596
## # ... with 132 more rows
…
