…
```r
gapminder %>%
  group_by(year) %>%
  summarise(year, mean(life_exp))
```

```
## `summarise()` has grouped output by 'year'. You can override using the
## `.groups` argument.
```

```
## # A tibble: 1,704 x 2
## # Groups:   year [12]
##     year `mean(life_exp)`
##    <int>            <dbl>
##  1  1952             49.1
##  2  1952             49.1
##  3  1952             49.1
##  4  1952             49.1
##  5  1952             49.1
##  6  1952             49.1
##  7  1952             49.1
##  8  1952             49.1
##  9  1952             49.1
## 10  1952             49.1
## # ... with 1,694 more rows
```
…
