Data Visualization: ggplot part 3
…
homerange <- read_csv(here("lab11", "data", "Tamburelloetal_HomeRangeDatabase.csv"))

Line plots

Line plots are great when you need to show changes over time. Here we look at the number of samples for species DM and DS over the years represented in the data.

deserts %>% 
  filter(species_id=="DM" | species_id=="DS") %>% 
  group_by(year, species_id) %>% 
  summarise(n=n())

## `summarise()` has grouped output by 'year'. You can override using the
## `.groups` argument.

## # A tibble: 47 x 3
## # Groups:   year [26]
##     year species_id     n
##    <dbl> <chr>      <int>
##  1  1977 DM           264
##  2  1977 DS            98
##  3  1978 DM           389
##  4  1978 DS           320
##  5  1979 DM           209
##  6  1979 DS           204
##  7  1980 DM           493
##  8  1980 DS           346
##  9  1981 DM           559
## 10  1981 DS           354
## # ... with 37 more rows
…
## quartiles
## [-1.52,3.65]  (3.65,4.59]  (4.59,6.02]  (6.02,9.55] 
##          143          142          142          142

homerange <- homerange %>% 
             mutate(range_category = case_when(log10.hra <= 3.65 ~ "very_small",
                                              log10.hra > 3.65 & log10.hra <= 4.59 ~ "small",
                                              log10.hra > 4.59 & log10.hra <= 6.02 ~ "medium",
                                              log10.hra > 6.02 ~ "large"))
homerange

## # A tibble: 569 x 26
##    taxon        common.name class order family genus species primarymethod N    
##    <chr>        <chr>       <chr> <chr> <chr>  <chr> <chr>   <chr>         <chr>
##  1 lake fishes  american e~ acti~ angu~ angui~ angu~ rostra~ telemetry     16   
##  2 river fishes blacktail ~ acti~ cypr~ catos~ moxo~ poecil~ mark-recaptu~ <NA> 
##  3 river fishes central st~ acti~ cypr~ cypri~ camp~ anomal~ mark-recaptu~ 20   
##  4 river fishes rosyside d~ acti~ cypr~ cypri~ clin~ fundul~ mark-recaptu~ 26   
##  5 river fishes longnose d~ acti~ cypr~ cypri~ rhin~ catara~ mark-recaptu~ 17   
##  6 river fishes muskellunge acti~ esoc~ esoci~ esox  masqui~ telemetry     5    
##  7 marine fish~ pollack     acti~ gadi~ gadid~ poll~ pollac~ telemetry     2    
##  8 marine fish~ saithe      acti~ gadi~ gadid~ poll~ virens  telemetry     2    
##  9 marine fish~ lined surg~ acti~ perc~ acant~ acan~ lineat~ direct obser~ <NA> 
## 10 marine fish~ orangespin~ acti~ perc~ acant~ naso  litura~ telemetry     8    
## # ... with 559 more rows, and 17 more variables: mean.mass.g <dbl>,
## #   log10.mass <dbl>, alternative.mass.reference <chr>, mean.hra.m2 <dbl>,
## #   log10.hra <dbl>, hra.reference <chr>, realm <chr>, thermoregulation <chr>,
## #   locomotion <chr>, trophic.guild <chr>, dimension <dbl>, preymass <dbl>,
## #   log10.preymass <dbl>, PPMR <dbl>, prey.size.reference <chr>,
## #   mass_category <chr>, range_category <chr>

How many and which taxonomic classes are represented in each of the range_category classes?

homerange %>%
  group_by(range_category) %>%
  summarize(taxon, range_category, n=n())

## `summarise()` has grouped output by 'range_category'. You can override using
## the `.groups` argument.

## # A tibble: 569 x 3
## # Groups:   range_category [4]
##    range_category taxon             n
##    <chr>          <chr>         <int>
##  1 large          marine fishes   142
##  2 large          marine fishes   142
##  3 large          marine fishes   142
##  4 large          marine fishes   142
##  5 large          marine fishes   142
##  6 large          birds           142
##  7 large          birds           142
##  8 large          birds           142
##  9 large          birds           142
## 10 large          birds           142
## # ... with 559 more rows
…
