…
1. (3 points) Once you have an idea of the structure of the data, please make each data set tidy (hint: think back to pivots) and store them as new objects. You will need both the original (wide) and tidy (long) data!  

```r
pop_total_long<- pop_total %>%
  pivot_longer(X1800:X2100,
               names_to = "year", 
               names_prefix = "X",
               values_to = "popsize" ) 
pop_total_long
```

```
## # A tibble: 58,695 x 3
##    country     year  popsize
##    <chr>       <chr>   <int>
##  1 Afghanistan 1800  3280000
##  2 Afghanistan 1801  3280000
##  3 Afghanistan 1802  3280000
##  4 Afghanistan 1803  3280000
##  5 Afghanistan 1804  3280000
##  6 Afghanistan 1805  3280000
##  7 Afghanistan 1806  3280000
##  8 Afghanistan 1807  3280000
##  9 Afghanistan 1808  3280000
## 10 Afghanistan 1809  3280000
## # ... with 58,685 more rows
```

```r
inc_gdp_long<- inc_gdp %>%
  pivot_longer(X1800:X2040,
               names_to = "year", 
               names_prefix = "X",
               values_to = "income_pp_gdp_pc" ) 
inc_gdp_long
```

```
## # A tibble: 46,513 x 3
##    country     year  income_pp_gdp_pc
##    <chr>       <chr>            <int>
##  1 Afghanistan 1800               603
##  2 Afghanistan 1801               603
##  3 Afghanistan 1802               603
##  4 Afghanistan 1803               603
##  5 Afghanistan 1804               603
##  6 Afghanistan 1805               603
##  7 Afghanistan 1806               603
##  8 Afghanistan 1807               603
##  9 Afghanistan 1808               603
## 10 Afghanistan 1809               603
## # ... with 46,503 more rows
```


```r
life_exp_long<- life_exp %>%
   pivot_longer(X1800:X2100,
               names_to = "year", 
               names_prefix = "X",
               values_to = "life_exp",
               values_drop_na = TRUE) 
life_exp_long
```

```
## # A tibble: 55,528 x 3
##    country     year  life_exp
##    <chr>       <chr>    <dbl>
##  1 Afghanistan 1800      28.2
##  2 Afghanistan 1801      28.2
##  3 Afghanistan 1802      28.2
##  4 Afghanistan 1803      28.2
##  5 Afghanistan 1804      28.2
##  6 Afghanistan 1805      28.2
##  7 Afghanistan 1806      28.1
##  8 Afghanistan 1807      28.1
##  9 Afghanistan 1808      28.1
## 10 Afghanistan 1809      28.1
## # ... with 55,518 more rows
```

2. (1 point) How many different countries are represented in the data? Provide the total number and their names. Since each data set includes different numbers of countries, you will need to do this for each one.  

```r
pop_total_long %>%
  distinct(country) 
```

```
## # A tibble: 195 x 1
##    country            
##    <chr>              
##  1 Afghanistan        
##  2 Albania            
##  3 Algeria            
##  4 Andorra            
##  5 Angola             
##  6 Antigua and Barbuda
##  7 Argentina          
##  8 Armenia            
##  9 Australia          
## 10 Austria            
## # ... with 185 more rows
```
…
```
## # A tibble: 1 x 2
##   `n_distinct(country)`     n
##                   <int> <int>
## 1                   195 58695
```

```r
inc_gdp_long %>%
  distinct(country) 
```

```
## # A tibble: 193 x 1
##    country            
##    <chr>              
##  1 Afghanistan        
##  2 Albania            
##  3 Algeria            
##  4 Andorra            
##  5 Angola             
##  6 Antigua and Barbuda
##  7 Argentina          
##  8 Armenia            
##  9 Australia          
## 10 Austria            
## # ... with 183 more rows
```
…
```
##   n_distinct(country)   n
## 1                 193 193
```

```r
life_exp_long %>%
  distinct(country) 
```

```
## # A tibble: 187 x 1
##    country            
##    <chr>              
##  1 Afghanistan        
##  2 Albania            
##  3 Algeria            
##  4 Andorra            
##  5 Angola             
##  6 Antigua and Barbuda
##  7 Argentina          
##  8 Armenia            
##  9 Australia          
## 10 Austria            
## # ... with 177 more rows
```
…
## Life Expectancy  

3. (2 points) Let's limit the data to 100 years (1920-2020). ***For these years, which country has the highest average life expectancy? How about the lowest average life expectancy? ***

```r
life_exp_100<-life_exp_long %>%
  filter(year >= 1920 & year <= 2020)
life_exp_100
```

```
## # A tibble: 18,728 x 3
##    country     year  life_exp
##    <chr>       <chr>    <dbl>
##  1 Afghanistan 1920      30.6
##  2 Afghanistan 1921      30.7
##  3 Afghanistan 1922      30.8
##  4 Afghanistan 1923      30.8
##  5 Afghanistan 1924      30.9
##  6 Afghanistan 1925      31  
##  7 Afghanistan 1926      31  
##  8 Afghanistan 1927      31.1
##  9 Afghanistan 1928      31.1
## 10 Afghanistan 1929      31.2
## # ... with 18,718 more rows
```


```r
life_exp_mean<- life_exp_100 %>%
  group_by(country) %>%
  summarise(mean=mean(life_exp, na.rm = TRUE))
life_exp_mean
```

```
## # A tibble: 187 x 2
##    country              mean
##    <chr>               <dbl>
##  1 Afghanistan          43.8
##  2 Albania              61.4
##  3 Algeria              56.3
##  4 Andorra              79.8
##  5 Angola               44.0
##  6 Antigua and Barbuda  63.2
##  7 Argentina            65.8
##  8 Armenia              60.2
##  9 Australia            72.7
## 10 Austria              68.6
## # ... with 177 more rows
```
…
## Population Growth
6. (3 points) Which 5 countries have had the highest population growth over the past 100 years (1920-2020)?  

```r
pop_100<- pop_total_long %>%
  filter(year >= 1920 & year <= 2020)
pop_100
```

```
## # A tibble: 19,695 x 3
##    country     year   popsize
##    <chr>       <chr>    <int>
##  1 Afghanistan 1920  10600000
##  2 Afghanistan 1921  10500000
##  3 Afghanistan 1922  10300000
##  4 Afghanistan 1923   9710000
##  5 Afghanistan 1924   9200000
##  6 Afghanistan 1925   8720000
##  7 Afghanistan 1926   8260000
##  8 Afghanistan 1927   7830000
##  9 Afghanistan 1928   7420000
## 10 Afghanistan 1929   7100000
## # ... with 19,685 more rows
```
…
## Income
The units used for income are gross domestic product per person adjusted for differences in purchasing power in international dollars.

8. (4 points) As in the previous questions, which countries have experienced the biggest growth in per person GDP. Show this as a table and then plot the changes for the top 5 countries. With a bit of research, you should be able to explain the dramatic downturns of the wealthiest economies that occurred during the 1980's.  

```r
inc_100<- inc_gdp_long %>%
  filter(year >= 1920 & year <= 2020)
inc_100
```

```
## # A tibble: 19,493 x 3
##    country     year  income_pp_gdp_pc
##    <chr>       <chr>            <int>
##  1 Afghanistan 1920              1490
##  2 Afghanistan 1921              1520
##  3 Afghanistan 1922              1550
##  4 Afghanistan 1923              1570
##  5 Afghanistan 1924              1600
##  6 Afghanistan 1925              1630
##  7 Afghanistan 1926              1650
##  8 Afghanistan 1927              1680
##  9 Afghanistan 1928              1710
## 10 Afghanistan 1929              1740
## # ... with 19,483 more rows
```
…
```r
gapminder_join <- inner_join(life_exp_100, pop_100, by= c("country", "year"))
gapminder_join <- inner_join(gapminder_join, inc_100, by= c("country", "year"))
gapminder_join
```

```
## # A tibble: 18,728 x 5
##    country     year  life_exp  popsize income_pp_gdp_pc
##    <chr>       <chr>    <dbl>    <int>            <int>
##  1 Afghanistan 1920      30.6 10600000             1490
##  2 Afghanistan 1921      30.7 10500000             1520
##  3 Afghanistan 1922      30.8 10300000             1550
##  4 Afghanistan 1923      30.8  9710000             1570
##  5 Afghanistan 1924      30.9  9200000             1600
##  6 Afghanistan 1925      31    8720000             1630
##  7 Afghanistan 1926      31    8260000             1650
##  8 Afghanistan 1927      31.1  7830000             1680
##  9 Afghanistan 1928      31.1  7420000             1710
## 10 Afghanistan 1929      31.2  7100000             1740
## # ... with 18,718 more rows
```
…
