…
What are the 26 non-flying birds?

```r
homerange%>%
  filter(taxon == "birds")%>%
  filter(locomotion != "flying")%>%
  select(common.name)
```

```
## # A tibble: 26 x 1
##    common.name          
##    <chr>                
##  1 gadwall              
##  2 northern brown kiwi  
##  3 oystercatcher        
##  4 greater roadrunner   
##  5 banded ground-cuckoo 
##  6 caracara             
##  7 red-throated caracara
##  8 hazel grouse         
##  9 sage grouse          
## 10 dusky grouse         
## # ... with 16 more rows
```
…
