…
## Box Plots
For the next series of examples, we will use the `homerange` data.  **Database of vertebrate home range sizes.**   

Reference: Tamburello N, Cote IM, Dulvy NK (2015) Energy and the scaling of animal space use. The American Naturalist 186(2):196-211. http://dx.doi.org/10.1086/682070.  
Data: http://datadryad.org/resource/doi:10.5061/dryad.q5j65/1  


```r
homerange <- read_csv(here("lab9", "data", "Tamburelloetal_HomeRangeDatabase.csv"))
homerange
```

```
## # A tibble: 569 x 24
##    taxon        common.name class order family genus species primarymethod N    
##    <chr>        <chr>       <chr> <chr> <chr>  <chr> <chr>   <chr>         <chr>
##  1 lake fishes  american e~ acti~ angu~ angui~ angu~ rostra~ telemetry     16   
##  2 river fishes blacktail ~ acti~ cypr~ catos~ moxo~ poecil~ mark-recaptu~ <NA> 
##  3 river fishes central st~ acti~ cypr~ cypri~ camp~ anomal~ mark-recaptu~ 20   
##  4 river fishes rosyside d~ acti~ cypr~ cypri~ clin~ fundul~ mark-recaptu~ 26   
##  5 river fishes longnose d~ acti~ cypr~ cypri~ rhin~ catara~ mark-recaptu~ 17   
##  6 river fishes muskellunge acti~ esoc~ esoci~ esox  masqui~ telemetry     5    
##  7 marine fish~ pollack     acti~ gadi~ gadid~ poll~ pollac~ telemetry     2    
##  8 marine fish~ saithe      acti~ gadi~ gadid~ poll~ virens  telemetry     2    
##  9 marine fish~ lined surg~ acti~ perc~ acant~ acan~ lineat~ direct obser~ <NA> 
## 10 marine fish~ orangespin~ acti~ perc~ acant~ naso  litura~ telemetry     8    
## # ... with 559 more rows, and 15 more variables: mean.mass.g <dbl>,
## #   log10.mass <dbl>, alternative.mass.reference <chr>, mean.hra.m2 <dbl>,
## #   log10.hra <dbl>, hra.reference <chr>, realm <chr>, thermoregulation <chr>,
## #   locomotion <chr>, trophic.guild <chr>, dimension <dbl>, preymass <dbl>,
## #   log10.preymass <dbl>, PPMR <dbl>, prey.size.reference <chr>
```
…
## Practice
1. There are more herbivores than carnivores in the homerange data, but how do their masses compare? Make a summary and boxplot that compares their masses. Use `log10.mass`.

```r
homerange %>%
  summarise(trophic.guild, log10.mass) 
```

```
## # A tibble: 569 x 2
##    trophic.guild log10.mass
##    <chr>              <dbl>
##  1 carnivore          2.95 
##  2 carnivore          2.75 
##  3 carnivore          1.53 
##  4 carnivore          0.602
##  5 carnivore          0.602
##  6 carnivore          3.55 
##  7 carnivore          2.87 
##  8 carnivore          2.65 
##  9 herbivore          2.04 
## 10 herbivore          2.89 
## # ... with 559 more rows
```
…
```
## `summarise()` has grouped output by 'family'. You can override using the
## `.groups` argument.
```

```r
hm_mam_carni
```

```
## # A tibble: 80 x 3
## # Groups:   family [18]
##    family          trophic.guild log10.mass
##    <chr>           <chr>              <dbl>
##  1 canidae         carnivore           3.70
##  2 canidae         carnivore           4.44
##  3 canidae         carnivore           3.87
##  4 canidae         carnivore           3.60
##  5 canidae         carnivore           3.65
##  6 canidae         carnivore           3.51
##  7 canidae         carnivore           3.32
##  8 chrysochloridae carnivore           2.64
##  9 chrysochloridae carnivore           1.36
## 10 cricetidae      carnivore           1.34
## # ... with 70 more rows
```
…
