…
```r
anyNA(amniota)
```

```
## [1] FALSE
```

```r
amniota<- na_if(amniota, -999.00)
amniota
```

```
## # A tibble: 21,322 x 36
##    class order   family  genus  species subspecies common_name  female_maturity~
##    <chr> <chr>   <chr>   <chr>  <chr>        <dbl> <chr>                   <dbl>
##  1 Aves  Accipi~ Accipi~ Accip~ albogu~         NA Pied Goshawk              NA 
##  2 Aves  Accipi~ Accipi~ Accip~ badius          NA Shikra                   363.
##  3 Aves  Accipi~ Accipi~ Accip~ bicolor         NA Bicolored H~              NA 
##  4 Aves  Accipi~ Accipi~ Accip~ brachy~         NA New Britain~              NA 
##  5 Aves  Accipi~ Accipi~ Accip~ brevip~         NA Levant Spar~             363.
##  6 Aves  Accipi~ Accipi~ Accip~ castan~         NA Chestnut-fl~              NA 
##  7 Aves  Accipi~ Accipi~ Accip~ chilen~         NA Chilean Hawk              NA 
##  8 Aves  Accipi~ Accipi~ Accip~ chiono~         NA White-breas~             548.
##  9 Aves  Accipi~ Accipi~ Accip~ cirroc~         NA Collared Sp~              NA 
## 10 Aves  Accipi~ Accipi~ Accip~ cooper~         NA Cooper's Ha~             730 
## # ... with 21,312 more rows, and 28 more variables:
## #   litter_or_clutch_size_n <dbl>, litters_or_clutches_per_y <dbl>,
## #   adult_body_mass_g <dbl>, maximum_longevity_y <dbl>, gestation_d <dbl>,
## #   weaning_d <dbl>, birth_or_hatching_weight_g <dbl>, weaning_weight_g <dbl>,
## #   egg_mass_g <dbl>, incubation_d <dbl>, fledging_age_d <dbl>,
## #   longevity_y <dbl>, male_maturity_d <dbl>,
## #   inter_litter_or_interbirth_interval_y <dbl>, female_body_mass_g <dbl>, ...
```
…
Wow, that is a lot of missing data! Let's try `purr`. For a large data set like `amniota` this is very convenient.

```r
amniota_tidy %>% 
  purrr::map_df(~ sum(is.na(.))) %>% 
  pivot_longer(everything(),
    names_to= "variables",
    values_to = "num_nas") %>% 
  arrange(desc(num_nas))
```

```
## # A tibble: 36 x 2
##    variables                      num_nas
##    <chr>                            <int>
##  1 subspecies                       21322
##  2 female_body_mass_at_maturity_g   21318
##  3 female_svl_at_maturity_cm        21120
##  4 fledging_mass_g                  21111
##  5 male_svl_cm                      21040
##  6 no_sex_maturity_d                20860
##  7 egg_width_mm                     20727
##  8 egg_length_mm                    20702
##  9 weaning_weight_g                 20258
## 10 female_svl_cm                    20242
## # ... with 26 more rows
```
…
