…
```
## 
## i Use `spec()` to retrieve the full column specification for this data.
## i Specify the column types or set `show_col_types = FALSE` to quiet this message.
```

2. Use one or more of the functions from the last lab to determine if there are NA's in the data, how they are represented, and where they are located.

```r
life_history
```

```
## # A tibble: 1,440 x 13
##    order  family genus species   mass gestation newborn weaning wean_mass    afr
##    <chr>  <chr>  <chr> <chr>    <dbl>     <dbl> <chr>     <dbl>     <dbl>  <dbl>
##  1 Artio~ Antil~ Anti~ americ~ 4.54e4      8.13 3246.36    3         8900   13.5
##  2 Artio~ Bovid~ Addax nasoma~ 1.82e5      9.39 5480       6.5       -999   27.3
##  3 Artio~ Bovid~ Aepy~ melamp~ 4.15e4      6.35 5093       5.63     15900   16.7
##  4 Artio~ Bovid~ Alce~ busela~ 1.5 e5      7.9  10166.~    6.5       -999   23.0
##  5 Artio~ Bovid~ Ammo~ clarkei 2.85e4      6.8  not me~ -999         -999 -999  
##  6 Artio~ Bovid~ Ammo~ lervia  5.55e4      5.08 3810       4         -999   14.9
##  7 Artio~ Bovid~ Anti~ marsup~ 3   e4      5.72 3910       4.04      -999   10.2
##  8 Artio~ Bovid~ Anti~ cervic~ 3.75e4      5.5  3846       2.13      -999   20.1
##  9 Artio~ Bovid~ Bison bison   4.98e5      8.93 20000     10.7     157500   29.4
## 10 Artio~ Bovid~ Bison bonasus 5   e5      9.14 23000.~    6.6       -999   30.0
## # ... with 1,430 more rows, and 3 more variables: max_life <dbl>,
## #   litter_size <dbl>, litters_year <dbl>
```
…
```
## 
## i Use `spec()` to retrieve the full column specification for this data.
## i Specify the column types or set `show_col_types = FALSE` to quiet this message.
```

```r
cites
```

```
## # A tibble: 67,161 x 16
##     Year App.  Taxon     Class   Order   Family  Genus  Importer Exporter Origin
##    <dbl> <chr> <chr>     <chr>   <chr>   <chr>   <chr>  <chr>    <chr>    <chr> 
##  1  2016 I     Aquila h~ Aves    Falcon~ Accipi~ Aquila TR       NL       CZ    
##  2  2016 I     Aquila h~ Aves    Falcon~ Accipi~ Aquila XV       RS       RS    
##  3  2016 I     Haliaeet~ Aves    Falcon~ Accipi~ Halia~ BE       NO       <NA>  
##  4  2016 I     Haliaeet~ Aves    Falcon~ Accipi~ Halia~ BE       NO       <NA>  
##  5  2016 I     Haliaeet~ Aves    Falcon~ Accipi~ Halia~ DK       IS       <NA>  
##  6  2016 I     Haliaeet~ Aves    Falcon~ Accipi~ Halia~ XV       RS       RS    
##  7  2016 I     Harpia h~ Aves    Falcon~ Accipi~ Harpia BR       FR       <NA>  
##  8  2016 I     Harpia h~ Aves    Falcon~ Accipi~ Harpia BR       FR       <NA>  
##  9  2016 I     Harpia h~ Aves    Falcon~ Accipi~ Harpia BR       FR       <NA>  
## 10  2016 I     Acipense~ Actino~ Acipen~ Acipen~ Acipe~ CH       DE       <NA>  
## # ... with 67,151 more rows, and 6 more variables:
## #   Importer reported quantity <dbl>, Exporter reported quantity <dbl>,
## #   Term <chr>, Unit <chr>, Purpose <chr>, Source <chr>
```
…
3. Try using `group_by()` with `naniar`. Look specifically at class and `exporter_reported_quantity`. For which taxonomic classes do we have a high proportion of missing export data?

```r
cites %>%
  group_by(exporter_reported_quantity, class) %>%
  naniar::miss_var_summary() 
```

```
## # A tibble: 114,254 x 5
## # Groups:   class, exporter_reported_quantity [8,161]
##    class exporter_reported_quantity variable                   n_miss pct_miss
##    <chr>                      <dbl> <chr>                       <int>    <dbl>
##  1 Aves                           1 unit                         1205  99.7   
##  2 Aves                           1 importer_reported_quantity    996  82.4   
##  3 Aves                           1 origin                        524  43.3   
##  4 Aves                           1 genus                           4   0.331 
##  5 Aves                           1 family                          1   0.0827
##  6 Aves                           1 importer                        1   0.0827
##  7 Aves                           1 exporter                        1   0.0827
##  8 Aves                           1 purpose                         1   0.0827
##  9 Aves                           1 source                          1   0.0827
## 10 Aves                           1 year                            0   0     
## # ... with 114,244 more rows
```
…
