…
**4. How many total NA's are in each data set? Do these values make sense? Are NA's represented by values?**   

`amniota`  

```r
amniota_NA<- na_if(amniota, -999)
amniota_NA
```

```
## # A tibble: 21,322 x 36
##    class order      family genus species subspecies common_name female_maturity~
##    <chr> <chr>      <chr>  <chr> <chr>        <dbl> <chr>                  <dbl>
##  1 Aves  Accipitri~ Accip~ Acci~ albogu~         NA Pied Gosha~              NA 
##  2 Aves  Accipitri~ Accip~ Acci~ badius          NA Shikra                  363.
##  3 Aves  Accipitri~ Accip~ Acci~ bicolor         NA Bicolored ~              NA 
##  4 Aves  Accipitri~ Accip~ Acci~ brachy~         NA New Britai~              NA 
##  5 Aves  Accipitri~ Accip~ Acci~ brevip~         NA Levant Spa~             363.
##  6 Aves  Accipitri~ Accip~ Acci~ castan~         NA Chestnut-f~              NA 
##  7 Aves  Accipitri~ Accip~ Acci~ chilen~         NA Chilean Ha~              NA 
##  8 Aves  Accipitri~ Accip~ Acci~ chiono~         NA White-brea~             548.
##  9 Aves  Accipitri~ Accip~ Acci~ cirroc~         NA Collared S~              NA 
## 10 Aves  Accipitri~ Accip~ Acci~ cooper~         NA Cooper's H~             730 
## # ... with 21,312 more rows, and 28 more variables:
## #   litter_or_clutch_size_n <dbl>, litters_or_clutches_per_y <dbl>,
## #   adult_body_mass_g <dbl>, maximum_longevity_y <dbl>, gestation_d <dbl>,
## #   weaning_d <dbl>, birth_or_hatching_weight_g <dbl>, weaning_weight_g <dbl>,
## #   egg_mass_g <dbl>, incubation_d <dbl>, fledging_age_d <dbl>,
## #   longevity_y <dbl>, male_maturity_d <dbl>,
## #   inter_litter_or_interbirth_interval_y <dbl>, female_body_mass_g <dbl>, ...
```
…
```
## [1] 170566
```

**5. Make any necessary replacements in the data such that all NA's appear as "NA".**   


**6. Use the package `naniar` to produce a summary, including percentages, of missing data in each column for the `amniota` data.**  

```r
naniar::miss_var_summary(amniota_NA)
```

```
## # A tibble: 36 x 3
##    variable                       n_miss pct_miss
##    <chr>                           <int>    <dbl>
##  1 subspecies                      21322    100  
##  2 female_body_mass_at_maturity_g  21318    100. 
##  3 female_svl_at_maturity_cm       21120     99.1
##  4 fledging_mass_g                 21111     99.0
##  5 male_svl_cm                     21040     98.7
##  6 no_sex_maturity_d               20860     97.8
##  7 egg_width_mm                    20727     97.2
##  8 egg_length_mm                   20702     97.1
##  9 weaning_weight_g                20258     95.0
## 10 female_svl_cm                   20242     94.9
## # ... with 26 more rows
```

**7. Use the package `naniar` to produce a summary, including percentages, of missing data in each column for the `amphibio` data.**

```r
naniar::miss_var_summary(amphibio)
```

```
## # A tibble: 38 x 3
##    variable n_miss pct_miss
##    <chr>     <int>    <dbl>
##  1 fruits     6774    100. 
##  2 flowers    6772     99.9
##  3 seeds      6772     99.9
##  4 leaves     6752     99.6
##  5 dry_cold   6735     99.4
##  6 vert       6657     98.2
##  7 obs        6651     98.2
##  8 wet_cold   6625     97.8
##  9 crepu      6608     97.5
## 10 dry_warm   6572     97.0
## # ... with 28 more rows
```
…
```
## 
## i Use `spec()` to retrieve the full column specification for this data.
## i Specify the column types or set `show_col_types = FALSE` to quiet this message.
```

```r
amniota_reload
```

```
## # A tibble: 21,322 x 36
##    class order      family genus species subspecies common_name female_maturity~
##    <chr> <chr>      <chr>  <chr> <chr>   <lgl>      <chr>                  <dbl>
##  1 Aves  Accipitri~ Accip~ Acci~ albogu~ NA         Pied Gosha~              NA 
##  2 Aves  Accipitri~ Accip~ Acci~ badius  NA         Shikra                  363.
##  3 Aves  Accipitri~ Accip~ Acci~ bicolor NA         Bicolored ~              NA 
##  4 Aves  Accipitri~ Accip~ Acci~ brachy~ NA         New Britai~              NA 
##  5 Aves  Accipitri~ Accip~ Acci~ brevip~ NA         Levant Spa~             363.
##  6 Aves  Accipitri~ Accip~ Acci~ castan~ NA         Chestnut-f~              NA 
##  7 Aves  Accipitri~ Accip~ Acci~ chilen~ NA         Chilean Ha~              NA 
##  8 Aves  Accipitri~ Accip~ Acci~ chiono~ NA         White-brea~             548.
##  9 Aves  Accipitri~ Accip~ Acci~ cirroc~ NA         Collared S~              NA 
## 10 Aves  Accipitri~ Accip~ Acci~ cooper~ NA         Cooper's H~             730 
## # ... with 21,312 more rows, and 28 more variables:
## #   litter_or_clutch_size_n <dbl>, litters_or_clutches_per_y <dbl>,
## #   adult_body_mass_g <dbl>, maximum_longevity_y <dbl>, gestation_d <dbl>,
## #   weaning_d <dbl>, birth_or_hatching_weight_g <dbl>, weaning_weight_g <dbl>,
## #   egg_mass_g <dbl>, incubation_d <dbl>, fledging_age_d <dbl>,
## #   longevity_y <dbl>, male_maturity_d <dbl>,
## #   inter_litter_or_interbirth_interval_y <dbl>, female_body_mass_g <dbl>, ...
```
…
